C:\dev\workspaces\ws_redeploy\groundstation-parent\groundstation\src\main\java\com\groundstation\filemonitor\FileUpdateMonitor.java
C:\dev\workspaces\ws_redeploy\groundstation-parent\groundstation\src\main\java\com\groundstation\fileeventprocessor\FileEventProcessor.java
C:\dev\workspaces\ws_redeploy\groundstation-parent\groundstation\src\main\java\com\groundstation\app\App.java
C:\dev\workspaces\ws_redeploy\groundstation-parent\groundstation\src\main\java\com\groundstation\utils\MessageUtils.java
